<?xml version="1.0" encoding="UTF-8" standalone="no"?>
<!-- Created with Inkscape (http://www.inkscape.org/) -->

<svg
   xmlns:dc="http://purl.org/dc/elements/1.1/"
   xmlns:cc="http://creativecommons.org/ns#"
   xmlns:rdf="http://www.w3.org/1999/02/22-rdf-syntax-ns#"
   xmlns:svg="http://www.w3.org/2000/svg"
   xmlns="http://www.w3.org/2000/svg"
   xmlns:xlink="http://www.w3.org/1999/xlink"
   xmlns:sodipodi="http://sodipodi.sourceforge.net/DTD/sodipodi-0.dtd"
   xmlns:inkscape="http://www.inkscape.org/namespaces/inkscape"
   width="32"
   height="32"
   id="svg2993"
   version="1.1"
   inkscape:version="0.48.5 r10040"
   sodipodi:docname="New document 1">
  <defs
     id="defs2995" />
  <sodipodi:namedview
     id="base"
     pagecolor="#ffffff"
     bordercolor="#666666"
     borderopacity="1.0"
     inkscape:pageopacity="0.0"
     inkscape:pageshadow="2"
     inkscape:zoom="11.313708"
     inkscape:cx="14.553271"
     inkscape:cy="1.5261316"
     inkscape:document-units="px"
     inkscape:current-layer="layer1"
     showgrid="true"
     inkscape:window-width="1920"
     inkscape:window-height="1017"
     inkscape:window-x="0"
     inkscape:window-y="27"
     inkscape:window-maximized="1">
    <inkscape:grid
       type="xygrid"
       id="grid3769"
       empspacing="5"
       visible="true"
       enabled="true"
       snapvisiblegridlinesonly="true" />
  </sodipodi:namedview>
  <metadata
     id="metadata2998">
    <rdf:RDF>
      <cc:Work
         rdf:about="">
        <dc:format>image/svg+xml</dc:format>
        <dc:type
           rdf:resource="http://purl.org/dc/dcmitype/StillImage" />
        <dc:title></dc:title>
      </cc:Work>
    </rdf:RDF>
  </metadata>
  <g
     inkscape:label="Layer 1"
     inkscape:groupmode="layer"
     id="layer1"
     transform="translate(0,-1020.3622)">
    <path
       sodipodi:type="arc"
       style="fill:none;fill-opacity:1;stroke:#777777;stroke-width:4;stroke-linecap:round;stroke-linejoin:round;stroke-miterlimit:4;stroke-opacity:1;stroke-dasharray:none;stroke-dashoffset:0"
       id="path3773"
       sodipodi:cx="16"
       sodipodi:cy="16"
       sodipodi:rx="6"
       sodipodi:ry="6"
       d="m 22,16 a 6,6 0 1 1 -12,0 6,6 0 1 1 12,0 z"
       transform="translate(0,1020.3622)" />
    <path
       style="fill:none;stroke:#777777;stroke-width:4;stroke-linecap:round;stroke-linejoin:round;stroke-miterlimit:4;stroke-opacity:1;stroke-dasharray:none"
       d="m 16,7 0,3"
       id="path4283"
       inkscape:connector-curvature="0"
       inkscape:transform-center-y="-8"
       transform="translate(0,1020.3622)"
       sodipodi:nodetypes="cc" />
    <use
       x="0"
       y="0"
       xlink:href="#path4283"
       inkscape:transform-center-y="8"
       id="use4289"
       transform="matrix(-1,0,0,-1,32,2072.7244)"
       width="32"
       height="32" />
    <use
       x="0"
       y="0"
       xlink:href="#path4283"
       inkscape:transform-center-y="5.6568082"
       id="use4291"
       transform="matrix(-0.70710678,-0.70710678,0.70710678,-0.70710678,-705.50503,1780.4946)"
       width="32"
       height="32"
       inkscape:transform-center-x="5.6568579" />
    <use
       x="0"
       y="0"
       xlink:href="#path4283"
       inkscape:transform-center-y="-5.6568576"
       id="use4295"
       transform="matrix(0.70710678,0.70710678,-0.70710678,0.70710678,737.50503,292.22975)"
       width="32"
       height="32"
       inkscape:transform-center-x="-5.6568546" />
    <use
       x="0"
       y="0"
       xlink:href="#path4283"
       id="use4297"
       transform="matrix(0,1,-1,0,1052.3622,1020.3622)"
       width="32"
       height="32"
       inkscape:transform-center-x="-8" />
    <use
       x="0"
       y="0"
       xlink:href="#path4283"
       inkscape:transform-center-y="5.6568246"
       id="use4299"
       transform="matrix(-0.70710678,0.70710678,-0.70710678,-0.70710678,760.13245,1757.8672)"
       width="32"
       height="32"
       inkscape:transform-center-x="-5.6568576" />
    <use
       x="0"
       y="0"
       xlink:href="#path4283"
       id="use4303"
       transform="matrix(0,-1,1,0,-1020.3622,1052.3622)"
       width="32"
       height="32"
       inkscape:transform-center-x="8" />
    <use
       x="0"
       y="0"
       xlink:href="#path4283"
       inkscape:transform-center-y="-5.6568546"
       id="use4305"
       transform="matrix(0.70710678,-0.70710678,0.70710678,0.70710678,-728.13245,314.85717)"
       width="32"
       height="32"
       inkscape:transform-center-x="5.6568576" />
  </g>
</svg>
